<?xml version="1.0" encoding="utf-8"?>
<!-- Generator: Adobe Illustrator 21.0.0, SVG Export Plug-In . SVG Version: 6.00 Build 0)  -->
<svg version="1.1" id="Layer_1" xmlns="http://www.w3.org/2000/svg" xmlns:xlink="http://www.w3.org/1999/xlink" x="0px" y="0px"
	 viewBox="0 0 100 100" style="enable-background:new 0 0 100 100;" xml:space="preserve">
<style type="text/css">
	.st0{fill:#02A8F1;}
	.st1{fill:#FFFFFF;}
</style>
<g id="Layer_2">
	<path class="st0" d="M86.7,100c-7.5,0-64.9,0-73.6,0S-0.1,92.3-0.1,86.1c0-6.2,0-64.5,0-71.8S6.5,0,14.4,0s64,0,71.2,0
		c7.2,0,14,6.4,14,12.6s0,68.1,0,74.6C99.7,93.8,94.1,100,86.7,100z"/>
	<path class="st1" d="M67.2,56.9c0,0,0,0,0.9-1.2c0.9-1.2,2.7-5.1,2.7-5.1l5.4-14.7H55.7v-6.1h24.5v-5.3H55.6v-11H43.7v11H18.6
		l-0.1,4.8h25.2v6.4H23.5v4.6h39.1c0,0,0,0-0.4,1.8c-0.4,1.7-5.3,11.7-5.3,11.7l-2.7-1.2c0,0-2.5-1.2-15.9-4c-5-1-9.2-0.8-12.6-0.2
		c-5.9,0.9-9.8,3.1-11.6,4c-5,2.5-11.8,11.9-4.9,22.8c6.9,11,23.3,8.7,31.4,6.8c8.1-2,20.4-15.8,20.4-15.8s0.1,0.3,1.6,1.2
		c1.5,0.9,37.4,16,37.4,16V67.6C100,69.1,67.2,56.9,67.2,56.9z M49.1,65.3C47.8,66.8,39,74,32.1,76c-6.8,2.1-12.2,0-16.8-2.8
		c-4.7-2.8-4-8.1-3.8-9.5c0.2-1.4,1.4-4.1,3.3-5.6c1.9-1.6,6.4-3.5,14.6-3.5s22,7.3,22,7.3S50.3,63.8,49.1,65.3z"/>
</g>
</svg>
