<?xml version="1.0" encoding="utf-8"?>
<!-- Generator: Adobe Illustrator 21.0.0, SVG Export Plug-In . SVG Version: 6.00 Build 0)  -->
<svg version="1.1" id="Layer_1" xmlns="http://www.w3.org/2000/svg" xmlns:xlink="http://www.w3.org/1999/xlink" x="0px" y="0px"
	 viewBox="0 0 554 243" style="enable-background:new 0 0 554 243;" xml:space="preserve">
<style type="text/css">
	.st0{fill:none;stroke:#070A09;stroke-width:18;stroke-miterlimit:10;}
	.st1{fill:#70A87E;stroke:#006838;stroke-width:18;stroke-miterlimit:10;}
	.st2{fill:none;}
	.st3{fill:#FFFFFF;stroke:#000000;stroke-width:18;stroke-miterlimit:10;}
	.st4{fill:#FFFFFF;stroke:#006838;stroke-width:18;stroke-miterlimit:10;}
	.st5{fill:#F9F9FA;}
	.st6{font-family:'AdobeGothicStd-Bold-KSCpc-EUC-H';}
	.st7{font-size:182.2639px;}
	.st8{fill:#006838;}
	.st9{fill:none;stroke:#09351F;stroke-width:9;stroke-miterlimit:10;}
</style>
<rect x="10.3" y="10.7" class="st0" width="522.9" height="222"/>
<rect x="22.2" y="10.7" class="st1" width="522.9" height="206"/>
<rect x="184.5" y="-55" class="st2" width="186" height="196.5"/>
<circle class="st3" cx="271.8" cy="113.7" r="93.3"/>
<circle class="st4" cx="283.6" cy="113.7" r="93.3"/>
<circle class="st5" cx="283.6" cy="113.7" r="70.4"/>
<text transform="matrix(1 0 0 1 190.3048 193.7266)" class="st6 st7">￥</text>
<text transform="matrix(1 0 0 1 196.9714 193.7266)" class="st8 st6 st7">￥</text>
<line class="st9" x1="55" y1="180" x2="159.7" y2="180"/>
<line class="st9" x1="411.3" y1="36.7" x2="516" y2="36.7"/>
<line class="st9" x1="435" y1="56" x2="516" y2="56"/>
<line class="st9" x1="463.7" y1="75.3" x2="516" y2="75.3"/>
</svg>
